{
  "floor": 1,
  "image": {
    "blurred_image_path": "thumbnails/Cgde7fog_XYQ_720x1280_16jGVcjb.jpg",
    "height": 1280,
    "orientation": 1,
    "overview_image_path": "thumbnails/Cgde7fog_XYQ_720x300_74tHK9Wi.jpg",
    "path": "30.61ab18c294f3ce68c6d83073cd1d91537fa91387.jpg",
    "width": 720
  },
  "number": 30,
  "overview_colour": null,
  "segments": [
    {
      "audio": {
        "duration": 49,
        "path": "30a_kor.8ff92d7d27cdd79e576ab4784fb905089193d2b0.mp3"
      },
      "footprint": {
        "background": 4282157647,
        "foreground": 4284454966
      },
      "images": [],
      "number": "30a",
      "title": "파리의 빛",
      "type": "AudioSegment"
    },
    {
      "background_image": {
        "blurred_image_path": "thumbnails/S_chwUc119EY_1280x720_16jGVcjb.jpg",
        "height": 720,
        "orientation": 8,
        "path": "30b_0.2e2af9374d61d58784c68e9edf00f25161de8d40.jpg",
        "width": 1280
      },
      "footprint": {
        "background": 4292893491,
        "foreground": 4291969329
      },
      "hide_during_intro": true,
      "hotspots": [
        {
          "audio": {
            "duration": 19,
            "path": "30b_2_kor.d744bb35d804faf705b2854508e4f0128b85c730.mp3"
          },
          "coordinate": [
            473,
            583
          ],
          "image": {
            "height": 720,
            "orientation": 8,
            "path": "30b_1.1e528917500d86bdee88f657a26a09202257aa4b.jpg",
            "width": 1280
          },
          "panel": null,
          "panel_coordinate": null
        }
      ],
      "intro_audio": {
        "duration": 6,
        "path": "30b_0_kor.5909d2c1fc0d68c02b69d6254a6a090cb50910ff.mp3"
      },
      "intro_video": null,
      "intro_voiceover_audio": null,
      "number": "30b",
      "title": "반 고흐의 편지",
      "type": "HotspotsSegment"
    }
  ],
  "title": "클리쉬 대로 "
}