{
  "floor": 1,
  "image": {
    "blurred_image_path": "thumbnails/m8muaKcFUj74_720x1280_koN5B6eQ.jpg",
    "focal_point": [
      360,
      652
    ],
    "height": 1280,
    "orientation": 1,
    "overview_image_path": "thumbnails/m8muaKcFUj74_720x300_3__BWwZ7.jpg",
    "path": "76.2ee03767ccb9064c78449a8ccbf60756bd0c4f9e.jpg",
    "width": 720
  },
  "number": 76,
  "overview_colour": 4294888192,
  "segments": [
    {
      "audio": {
        "duration": 94,
        "path": "76a_spa.7c84959e409f370371de23475f01fcec2c8d0118.mp3"
      },
      "footprint": {
        "background": 4294888192,
        "foreground": 4293180191
      },
      "images": [],
      "number": "76a",
      "title": "Llenos de luz",
      "type": "AudioSegment"
    },
    {
      "background_image": {
        "blurred_image_path": "thumbnails/hqt7s0qTvcux_1280x720_16jGVcjb.jpg",
        "height": 720,
        "orientation": 8,
        "path": "76b_0_revised.684c4a2734958c39c81390a45b2263c878cbfa52.jpg",
        "width": 1280
      },
      "footprint": {
        "background": 4282157647,
        "foreground": 4284454966
      },
      "hide_during_intro": false,
      "hotspots": [
        {
          "audio": {
            "duration": 36,
            "path": "76b_1_spa.0f0927137a9d0c6ba11573488ee0b2166ad323c0.mp3"
          },
          "coordinate": [
            89,
            302
          ],
          "image": {
            "height": 720,
            "orientation": 8,
            "path": "76b_1.ca7c5df1fd9c5aa64bed91936094ef171612860c.jpg",
            "width": 1280
          },
          "panel": null,
          "panel_coordinate": null
        },
        {
          "audio": {
            "duration": 15,
            "path": "76b_2_spa.ff1ce8eab821314cf761f2ac419c19e7e5a3b6ab.mp3"
          },
          "coordinate": [
            512,
            590
          ],
          "image": {
            "height": 720,
            "orientation": 8,
            "path": "76b_2_revised.a144a4cf839e465fbaf2aabd5a86a59d6c572ac6.jpg",
            "width": 1280
          },
          "panel": null,
          "panel_coordinate": null
        },
        {
          "audio": {
            "duration": 13,
            "path": "76b_3_spa.2f05eaa230a6449fe5655a8c879350bbaaf2ec03.mp3"
          },
          "coordinate": [
            1062,
            432
          ],
          "image": {
            "height": 1280,
            "orientation": 1,
            "path": "76b_3.bdb063a461f2203c521842fa2338d3d08dba83c6.jpg",
            "width": 720
          },
          "panel": null,
          "panel_coordinate": null
        }
      ],
      "intro_audio": null,
      "intro_video": null,
      "intro_voiceover_audio": null,
      "number": "76b",
      "title": "La historia de los Girasoles",
      "type": "HotspotsSegment"
    }
  ],
  "title": "Girasoles"
}