{
  "floor": 1,
  "image": {
    "blurred_image_path": "thumbnails/raJTxqv4hf1F_720x1280_16jGVcjb.jpg",
    "height": 1280,
    "orientation": 1,
    "overview_image_path": "thumbnails/raJTxqv4hf1F_720x300_74tHK9Wi.jpg",
    "path": "37_3.cc20c6c4be14b066b1abc1903f4bd33c463524d0.jpg",
    "width": 720
  },
  "number": 37,
  "overview_colour": null,
  "segments": [
    {
      "audio": {
        "duration": 70,
        "path": "37a_spa.7963355667e83da65e3588e1d045cd47fbd36649.mp3"
      },
      "footprint": {
        "background": 4292727727,
        "foreground": 4291281583
      },
      "images": [],
      "number": "37a",
      "title": "El arte que amaba Van Gogh",
      "type": "AudioSegment"
    },
    {
      "background_image": {
        "blurred_image_path": "thumbnails/becvtgWX7Mqf_1280x720_16jGVcjb.jpg",
        "height": 1280,
        "orientation": 1,
        "path": "37b_0.6d32c582fa177715ea1147ecf77490b0cb080141.jpg",
        "width": 720
      },
      "footprint": {
        "background": 4282157647,
        "foreground": 4284454966
      },
      "hide_during_intro": false,
      "hotspots": [
        {
          "audio": {
            "duration": 9,
            "path": "37b_1_spa.70758ec451d9c8078772c0d42e1fe5e7e4029eca.mp3"
          },
          "coordinate": [
            172,
            448
          ],
          "image": {
            "height": 1280,
            "orientation": 1,
            "path": "37b_1.8c4a1212c43ba45333514cf10b967e5678f32d3e.jpg",
            "width": 720
          },
          "panel": null,
          "panel_coordinate": null
        },
        {
          "audio": {
            "duration": 9,
            "path": "37b_2_spa.60faf783ac6ec3453e780d447051f2c33e619478.mp3"
          },
          "coordinate": [
            612,
            883
          ],
          "image": {
            "height": 1280,
            "orientation": 1,
            "path": "37b_2.f24c4da239a01ffd6d5c6fdb17e5d2f0a7a9af97.jpg",
            "width": 720
          },
          "panel": null,
          "panel_coordinate": null
        },
        {
          "audio": {
            "duration": 16,
            "path": "37b_3_spa.8e8ab1dcb3b332bd874f0655f72b93b169833a4d.mp3"
          },
          "coordinate": [
            194,
            1164
          ],
          "image": {
            "height": 1280,
            "orientation": 1,
            "path": "37b_3.d70f0588997f991938bdabc7dffcc1f2d1be5949.jpg",
            "width": 720
          },
          "panel": null,
          "panel_coordinate": null
        }
      ],
      "intro_audio": {
        "duration": 6,
        "path": "37b_0_spa.01c8ba19fb0c0118194210d371327b6ca52b6b20.mp3"
      },
      "intro_video": null,
      "intro_voiceover_audio": null,
      "number": "37b",
      "title": "Lo que dijo Van Gogh sobre los campesinos",
      "type": "HotspotsSegment"
    }
  ],
  "title": "Vida rural"
}