{
  "floor": 3,
  "image": {
    "blurred_image_path": "thumbnails/gkGMpm4ipXSb_720x1280_DMCgOIIS.jpg",
    "focal_point": [
      360,
      691
    ],
    "height": 1280,
    "orientation": 1,
    "overview_image_path": "thumbnails/gkGMpm4ipXSb_720x300_jYAVjE-R.jpg",
    "path": "65.1d5b5881fd70b4e5f9111b0fcf2fa07a2cd2c09c.jpg",
    "width": 720
  },
  "number": 65,
  "overview_colour": 4288928744,
  "segments": [
    {
      "audio": {
        "duration": 68,
        "path": "65a_kor.b84b023b1d28bbb643b32282bbea82fb07901da0.mp3"
      },
      "footprint": {
        "background": 4288928744,
        "foreground": 4288400078
      },
      "images": [],
      "number": "65a",
      "title": "반 고흐의 방식",
      "type": "AudioSegment"
    },
    {
      "background_image": {
        "blurred_image_path": "thumbnails/wLXUoye4ZFPx_1280x720_16jGVcjb.jpg",
        "height": 720,
        "orientation": 8,
        "path": "65b_0_revised.2b5f832738d94867c13eea963bf2380703e37a9f.jpg",
        "width": 1280
      },
      "footprint": {
        "background": 4292727727,
        "foreground": 4291281583
      },
      "hide_during_intro": false,
      "hotspots": [
        {
          "audio": {
            "duration": 8,
            "path": "65b_1_kor.13b954e9af46b9af585fa212a3d3cfd840687476.mp3"
          },
          "coordinate": [
            153,
            180
          ],
          "image": null,
          "panel": null,
          "panel_coordinate": null
        },
        {
          "audio": {
            "duration": 13,
            "path": "65b_2_kor.2b6b6161e7223f65c41f5c7e6f5bca1fa88ac12f.mp3"
          },
          "coordinate": [
            601,
            259
          ],
          "image": {
            "height": 720,
            "orientation": 8,
            "path": "65b_2_revised.356853720d430011a6a1ee6b45994708160a4e1a.jpg",
            "width": 1280
          },
          "panel": null,
          "panel_coordinate": null
        }
      ],
      "intro_audio": null,
      "intro_video": null,
      "intro_voiceover_audio": null,
      "number": "65b",
      "title": "가까이 들여다보면 궁금증이 생긴다",
      "type": "HotspotsSegment"
    }
  ],
  "title": "나무뿌리"
}