[
  {
    "building": "exposition_wing",
    "id": 10,
    "long_title": "",
    "slug": "pip",
    "title": "パリの版画 1900年",
    "type": "ordered"
  },
  {
    "building": "main_building",
    "id": 1,
    "long_title": "ゆっくりと鑑賞したい",
    "slug": "adult",
    "title": "ゆっくりと鑑賞する",
    "type": "unordered"
  },
  {
    "building": "main_building",
    "id": 2,
    "long_title": "ハイライトを見たい",
    "slug": "highlights",
    "title": "ハイライトを見る",
    "type": "ordered"
  }
]