{
  "floor": 3,
  "image": {
    "blurred_image_path": "thumbnails/soqTGnz_UGIp_720x1280_BW_yjAoy.jpg",
    "focal_point": [
      360,
      320
    ],
    "height": 1280,
    "orientation": 1,
    "overview_image_path": "thumbnails/soqTGnz_UGIp_720x300_UlJSVHay.jpg",
    "path": "89.43a2d71730ecbbab627f616092ae6557c3e877a0.jpg",
    "width": 720
  },
  "number": 89,
  "overview_colour": null,
  "segments": [
    {
      "audio": {
        "duration": 125,
        "path": "89a_kor.9b7181ff197bfa833c5d4cc3e2deae1b7829e559.mp3"
      },
      "footprint": {
        "background": 4289246208,
        "foreground": 4287145752
      },
      "images": [],
      "number": "89a",
      "title": "반 고흐의 유산",
      "type": "AudioSegment"
    }
  ],
  "title": "반 동겐, 블루 드레스 "
}