{
  "floor": 0,
  "image": {
    "blurred_image_path": "thumbnails/jyHIOOD_J2z8_720x1280_SlFeZkDj.jpg",
    "focal_point": [
      359,
      1059
    ],
    "height": 1280,
    "orientation": 1,
    "overview_image_path": "thumbnails/jyHIOOD_J2z8_720x300_KTjZ6tvd.jpg",
    "path": "Gwa315.f788b2c66f8e03b3602d66aafcca99d55a03ba92.jpg",
    "width": 720
  },
  "number": 315,
  "overview_colour": null,
  "segments": [
    {
      "audio": {
        "duration": 66,
        "path": "KOR_315.3bd1af9c183ad04b23a10b56275d472b41e5329c.mp3"
      },
      "footprint": {
        "background": 4286092196,
        "foreground": 4289513946
      },
      "images": [],
      "number": "315a",
      "title": "지면의 정치학",
      "type": "AudioSegment"
    }
  ],
  "title": "죄와벌, 발로통"
}