{
  "floor": -1,
  "image": {
    "blurred_image_path": "thumbnails/JS4UCGaALkqy_720x1280_16jGVcjb.jpg",
    "height": 1280,
    "orientation": 1,
    "overview_image_path": "thumbnails/JS4UCGaALkqy_720x300_74tHK9Wi.jpg",
    "path": "G307G.6d55f72c31a5190d688893412af353d19e82b3fd.jpg",
    "width": 720
  },
  "number": 307,
  "overview_colour": 4294494151,
  "segments": [
    {
      "audio": {
        "duration": 64,
        "path": "fre_307.06e20eb5dee9c0a7d9e9b4796c5fb3f1ea9599a8.mp3"
      },
      "footprint": {
        "background": 4281948200,
        "foreground": 4285172310
      },
      "images": [],
      "number": "307a",
      "title": "Le théâtre expérimental",
      "type": "AudioSegment"
    }
  ],
  "title": "Vuillard, Une répétition au Théâtre de l’Œuvre"
}