{
  "floor": 2,
  "image": {
    "blurred_image_path": "thumbnails/FunSqFut2_1o_720x1280_Cw5HsHyV.jpg",
    "focal_point": [
      360,
      524
    ],
    "height": 1280,
    "orientation": 1,
    "overview_image_path": "thumbnails/FunSqFut2_1o_720x300_o6JmsRgx.jpg",
    "path": "4.dc50b61be5d96bfd21a95a4f9f5c33f53e214b4e.jpg",
    "width": 720
  },
  "number": 4,
  "overview_colour": 4294888192,
  "segments": [
    {
      "audio": {
        "duration": 81,
        "path": "4a_jpn.00358504d0e31049d38985d4369b17bc95fa5669.mp3"
      },
      "footprint": {
        "background": 4294888192,
        "foreground": 4293180191
      },
      "images": [],
      "number": "4a",
      "title": "計画を持っていた家",
      "type": "AudioSegment"
    },
    {
      "background_image": {
        "height": 1280,
        "orientation": 1,
        "path": "4b_0_intro.9270c17f9a9a24841eecfc23d9e4a91d617e1597.jpg",
        "width": 720
      },
      "footprint": {
        "background": 4289246208,
        "foreground": 4287145752
      },
      "intro_audio": {
        "duration": 8,
        "path": "4b_1a_jpn.c5e2af13490475792507b938c793eb0519bb8896.mp3"
      },
      "layers": [
        {
          "audio": {
            "duration": 4,
            "path": "4b_1b_jpn.d01ceca509751c16af56a3b9e2df296f20ffd668.mp3"
          },
          "image": {
            "height": 1280,
            "orientation": 1,
            "path": "4b_1_revised.f52410588af8534933934b098a38cf5d8ff98929.jpg",
            "width": 720
          },
          "label": "彼の寝室"
        },
        {
          "audio": {
            "duration": 5,
            "path": "4b_1c_jpn.15529dc0b49ab1903aac4aac23e005ee513d3496.mp3"
          },
          "image": {
            "height": 1280,
            "orientation": 1,
            "path": "4b_2_revised.5225ce8939e97cfd1de4e742d532e37f177c92d5.jpg",
            "width": 720
          },
          "label": "美しいヒマワリ"
        },
        {
          "audio": {
            "duration": 7,
            "path": "4b_1d_jpn.396cd68042584166964019b841100291d058148f.mp3"
          },
          "image": {
            "height": 1280,
            "orientation": 1,
            "path": "4b_3_revised.6c3d6146a26c6e3dc496419a29ab34af4e718d3c.jpg",
            "width": 720
          },
          "label": "友人のための椅子"
        }
      ],
      "number": "4b",
      "title": "小さな家の大きなもの",
      "type": "LayersSegment"
    },
    {
      "background_image": {
        "blurred_image_path": "thumbnails/v4XW1aiqmGI2_1280x720_16jGVcjb.jpg",
        "height": 1280,
        "orientation": 1,
        "path": "4c_2_.9270c17f9a9a24841eecfc23d9e4a91d617e1597.jpg",
        "width": 720
      },
      "footprint": {
        "background": 4289246208,
        "foreground": 4287145752
      },
      "hide_during_intro": true,
      "hotspots": [
        {
          "audio": {
            "duration": 41,
            "path": "4c_1b_jpn_.3bce13335d49552be40dad762deef8e9faa147ee.mp3"
          },
          "coordinate": [
            288,
            640
          ],
          "image": {
            "height": 720,
            "orientation": 8,
            "path": "4c_1_.a144a4cf839e465fbaf2aabd5a86a59d6c572ac6.jpg",
            "width": 1280
          },
          "panel": null,
          "panel_coordinate": null
        }
      ],
      "intro_audio": {
        "duration": 11,
        "path": "4c_1a_jpn_.828ada120c71bbdd836b4acdb94ea67e48d3ee09.mp3"
      },
      "intro_video": null,
      "intro_voiceover_audio": null,
      "number": "4c",
      "title": "1人の客",
      "type": "HotspotsSegment"
    }
  ],
  "title": "黄色い家"
}