{
  "floor": 3,
  "image": {
    "blurred_image_path": "thumbnails/SPVzawoGsoyI_720x1280_16jGVcjb.jpg",
    "height": 1280,
    "orientation": 1,
    "overview_image_path": "thumbnails/SPVzawoGsoyI_720x300_74tHK9Wi.jpg",
    "path": "206a.6e4abfa894136f6f6d7e917b01b6f51a64a5ef05.jpg",
    "width": 720
  },
  "number": 33,
  "overview_colour": null,
  "segments": [
    {
      "audio": {
        "duration": 97,
        "path": "206a_ita.f7fef43f2e1a8da6ffbd398330957838c806c53d.mp3"
      },
      "footprint": {
        "background": 4283768080,
        "foreground": 4287443485
      },
      "images": [],
      "number": "33a",
      "title": "Van Gogh descrive il suo dipinto",
      "type": "AudioSegment"
    }
  ],
  "title": "Giardino dell’ospedale di Saint Paul"
}