{
  "floor": 1,
  "image": {
    "blurred_image_path": "thumbnails/yN1NtejvrVoy_720x1280_uB9JOqxi.jpg",
    "focal_point": [
      360,
      576
    ],
    "height": 1280,
    "orientation": 1,
    "overview_image_path": "thumbnails/yN1NtejvrVoy_720x300_mfj8bjKL.jpg",
    "path": "85_kaart.f6a08e3ee87e5e0af167d3bbae11cdeb9a6e9f9f.jpg",
    "width": 720
  },
  "number": 85,
  "overview_colour": null,
  "segments": [
    {
      "background_image": {
        "blurred_image_path": "thumbnails/BvHJd0kECUFC_1280x720_16jGVcjb.jpg",
        "height": 1280,
        "orientation": 1,
        "path": "85a_final_frame.f6a08e3ee87e5e0af167d3bbae11cdeb9a6e9f9f.jpg",
        "width": 720
      },
      "footprint": {
        "background": 4294953728,
        "foreground": 4294165248
      },
      "hide_during_intro": false,
      "hotspots": [
        {
          "audio": {
            "duration": 24,
            "path": "85a_2a_fre.171a1242ab52f685be33b5a094c02d10a4b4af15.mp3"
          },
          "coordinate": [
            367,
            422
          ],
          "image": {
            "height": 1280,
            "orientation": 1,
            "path": "85a_2a.803f1cb8ac63850a07584e0e1c41135425909e95.jpg",
            "width": 720
          },
          "panel": {
            "height": 593,
            "orientation": 1,
            "path": "thumb_85a_2a.375e7e4c4e076d0b85ac09713619129a3de90be0.jpg",
            "width": 360
          },
          "panel_coordinate": [
            432,
            384
          ]
        },
        {
          "audio": {
            "duration": 19,
            "path": "85a_2b_fre.4a413139756f14dc42a53b3c76fb0bcad1f4ab0e.mp3"
          },
          "coordinate": [
            216,
            1100
          ],
          "image": {
            "height": 1280,
            "orientation": 1,
            "path": "85a_2b_v2.7f4613934880a5b04ea9023241b5e43fbd645494.jpg",
            "width": 720
          },
          "panel": {
            "height": 595,
            "orientation": 1,
            "path": "thumb_85a_2b.b14b879fb25722847bfa319e790cb349bd3d1fc5.png",
            "width": 360
          },
          "panel_coordinate": [
            115,
            896
          ]
        },
        {
          "audio": {
            "duration": 9,
            "path": "85a_2c_fre.82425f5ceb9db0a8bf46983859924c4451169511.mp3"
          },
          "coordinate": [
            381,
            742
          ],
          "image": {
            "height": 1280,
            "orientation": 1,
            "path": "85_datavisualisatie_fre.765d12183635e58376c58892fa45789b79cdbe34.png",
            "width": 720
          },
          "panel": null,
          "panel_coordinate": null
        }
      ],
      "intro_audio": {
        "duration": 7,
        "path": "85a_2_fre.faf27cfbefecf1ee669b0f674eea4fefb2bf0256.mp3"
      },
      "intro_video": {
        "duration": 21,
        "height": 1280,
        "orientation": 1,
        "path": "85a_fre.mp4.92742fb097b4bdd71daaa9de4ac5f0a4d0f234bd.mp4",
        "width": 720
      },
      "intro_voiceover_audio": {
        "duration": 15,
        "path": "85a_1_fre.44bc6ace1596d6aa2ef1e5754d80007e70a54d7d.mp3"
      },
      "number": "85a",
      "title": "En route pour Paris",
      "type": "HotspotsSegment"
    }
  ],
  "title": "Paris"
}