{
  "floor": -1,
  "image": {
    "blurred_image_path": "thumbnails/cF0saDoHQulF_720x1280_Ktx0ygK6.jpg",
    "focal_point": [
      353,
      418
    ],
    "height": 1280,
    "orientation": 1,
    "overview_image_path": "thumbnails/cF0saDoHQulF_720x300_ouDK4WC7.jpg",
    "path": "G305.8a67976221c1beac96fd5b145c1557288ea2d1a3.jpg",
    "width": 720
  },
  "number": 305,
  "overview_colour": 4294494151,
  "segments": [
    {
      "audio": {
        "duration": 83,
        "path": "ENG_305_ALT.73cb22968fb8ca4110c71d91d4e1e1024c64d952.mp3"
      },
      "footprint": {
        "background": 4293297528,
        "foreground": 4288891713
      },
      "images": [],
      "number": "305a",
      "title": "Prints in private",
      "type": "AudioSegment"
    }
  ],
  "title": "Toorop, The Print Enthusiast"
}