{
  "floor": -1,
  "image": {
    "blurred_image_path": "thumbnails/5WYUmPz30plk_720x1280_vn1aOyS7.jpg",
    "focal_point": [
      373,
      397
    ],
    "height": 1280,
    "orientation": 1,
    "overview_image_path": "thumbnails/5WYUmPz30plk_720x300_brN4mpAe.jpg",
    "path": "G306.8820fbf513b20cd8011a639d3dbb7e8850f7a852.jpg",
    "width": 720
  },
  "number": 306,
  "overview_colour": 4282411565,
  "segments": [
    {
      "audio": {
        "duration": 73,
        "path": "GENG_306_ALT.59b577c559f94645e798cff1785d5db9368c8909.mp3"
      },
      "footprint": {
        "background": 4281948200,
        "foreground": 4285172310
      },
      "images": [],
      "number": "306a",
      "title": "The It girl",
      "type": "AudioSegment"
    }
  ],
  "title": "Lautrec, Poster for La Revue Blanche"
}