{
  "floor": 1,
  "image": {
    "blurred_image_path": "thumbnails/8HxFMZeDu3ks_720x1280_IYVYS5mB.jpg",
    "focal_point": [
      360,
      832
    ],
    "height": 1280,
    "orientation": 1,
    "overview_image_path": "thumbnails/8HxFMZeDu3ks_720x300_E0Em4fYC.jpg",
    "path": "28.21288d0d75a1ddd958b2c5f2fccaf5847d4126b2.jpg",
    "width": 720
  },
  "number": 28,
  "overview_colour": 4291044910,
  "segments": [
    {
      "audio": {
        "duration": 69,
        "path": "28a_kor.46adda9afe3fcae168f8051878cc7257d12a7bbf.mp3"
      },
      "footprint": {
        "background": 4283974952,
        "foreground": 4285621072
      },
      "images": [],
      "number": "28a",
      "title": "둥지",
      "type": "AudioSegment"
    },
    {
      "background_image": {
        "blurred_image_path": "thumbnails/xBoacU-QxCsR_1280x720_16jGVcjb.jpg",
        "height": 720,
        "orientation": 8,
        "path": "28b_0.a17d425fb7a6214cb0827f78fa3b26a114fb9458.jpg",
        "width": 1280
      },
      "footprint": {
        "background": 4292727727,
        "foreground": 4291281583
      },
      "hide_during_intro": true,
      "hotspots": [
        {
          "audio": {
            "duration": 6,
            "path": "28b_1a_kor.8296175a6864b344d801cb3d2a9dd4d2d849fa0e.mp3"
          },
          "coordinate": [
            422,
            288
          ],
          "image": {
            "height": 1280,
            "orientation": 1,
            "path": "28b_1a_helepagina.673406793de00ad32b9876c3108b313e19459090.jpg",
            "width": 720
          },
          "panel": null,
          "panel_coordinate": null
        },
        {
          "audio": {
            "duration": 11,
            "path": "28b_1b_kor.624e4b863daf1fbca7d91b05c5eef0b7bc27b7af.mp3"
          },
          "coordinate": [
            960,
            316
          ],
          "image": {
            "height": 1280,
            "orientation": 1,
            "path": "28b_1b_helepagina.673406793de00ad32b9876c3108b313e19459090.jpg",
            "width": 720
          },
          "panel": null,
          "panel_coordinate": null
        }
      ],
      "intro_audio": {
        "duration": 9,
        "path": "28b_0_kor.e48483cc0724a4bca257ff50d1ac2e600268321f.mp3"
      },
      "intro_video": null,
      "intro_voiceover_audio": null,
      "number": "28b",
      "title": "뉘넨의 반 고흐",
      "type": "HotspotsSegment"
    }
  ],
  "title": "오두막집"
}