{
  "floor": 2,
  "image": {
    "blurred_image_path": "thumbnails/FunSqFut2_1o_720x1280_Cw5HsHyV.jpg",
    "focal_point": [
      360,
      524
    ],
    "height": 1280,
    "orientation": 1,
    "overview_image_path": "thumbnails/FunSqFut2_1o_720x300_o6JmsRgx.jpg",
    "path": "4.dc50b61be5d96bfd21a95a4f9f5c33f53e214b4e.jpg",
    "width": 720
  },
  "number": 4,
  "overview_colour": 4294888192,
  "segments": [
    {
      "audio": {
        "duration": 79,
        "path": "4a_kor.8dd7b6cd9d9cb1f55befb728141ff363cd57386d.mp3"
      },
      "footprint": {
        "background": 4294888192,
        "foreground": 4293180191
      },
      "images": [],
      "number": "4a",
      "title": "예술가의 유토피아",
      "type": "AudioSegment"
    },
    {
      "background_image": {
        "height": 1280,
        "orientation": 1,
        "path": "4b_0_intro.9270c17f9a9a24841eecfc23d9e4a91d617e1597.jpg",
        "width": 720
      },
      "footprint": {
        "background": 4289246208,
        "foreground": 4287145752
      },
      "intro_audio": {
        "duration": 6,
        "path": "4b_1a_kor.dcd96114e492162435048988818ed300197a5e8c.mp3"
      },
      "layers": [
        {
          "audio": {
            "duration": 4,
            "path": "4b_1b_kor.f7950ec460a9d8d49893a66d768d60bc4d4748c2.mp3"
          },
          "image": {
            "height": 1280,
            "orientation": 1,
            "path": "4b_1_revised.f52410588af8534933934b098a38cf5d8ff98929.jpg",
            "width": 720
          },
          "label": "고흐의 방"
        },
        {
          "audio": {
            "duration": 5,
            "path": "4b_1c_kor.02ada68c16e33be55312cd05fa80352258609eaa.mp3"
          },
          "image": {
            "height": 1280,
            "orientation": 1,
            "path": "4b_2_revised.5225ce8939e97cfd1de4e742d532e37f177c92d5.jpg",
            "width": 720
          },
          "label": "해바라기"
        },
        {
          "audio": {
            "duration": 6,
            "path": "4b_1d_kor.f7f9bc4bf62d8f217e7c0e534bf22c92fee5acd2.mp3"
          },
          "image": {
            "height": 1280,
            "orientation": 1,
            "path": "4b_3_revised.6c3d6146a26c6e3dc496419a29ab34af4e718d3c.jpg",
            "width": 720
          },
          "label": "친구의 의자"
        }
      ],
      "number": "4b",
      "title": "노란 집의 위대한 유산",
      "type": "LayersSegment"
    },
    {
      "background_image": {
        "blurred_image_path": "thumbnails/v4XW1aiqmGI2_1280x720_16jGVcjb.jpg",
        "height": 1280,
        "orientation": 1,
        "path": "4c_2_.9270c17f9a9a24841eecfc23d9e4a91d617e1597.jpg",
        "width": 720
      },
      "footprint": {
        "background": 4289246208,
        "foreground": 4287145752
      },
      "hide_during_intro": true,
      "hotspots": [
        {
          "audio": {
            "duration": 30,
            "path": "4c_1_kor.c857aaafee38227b10830d094614f1048a89a3c0.mp3"
          },
          "coordinate": [
            288,
            640
          ],
          "image": {
            "height": 720,
            "orientation": 8,
            "path": "4c_1_.a144a4cf839e465fbaf2aabd5a86a59d6c572ac6.jpg",
            "width": 1280
          },
          "panel": null,
          "panel_coordinate": null
        }
      ],
      "intro_audio": {
        "duration": 9,
        "path": "4c_0_kor.e74c2eb8a34180fa5bbc25dc9c93fd4094753f7e.mp3"
      },
      "intro_video": null,
      "intro_voiceover_audio": null,
      "number": "4c",
      "title": "게스트",
      "type": "HotspotsSegment"
    }
  ],
  "title": "노란 집"
}