{
  "floor": 1,
  "image": {
    "blurred_image_path": "thumbnails/jNGGfr5UgnVa_720x1280_eiO1wSHu.jpg",
    "focal_point": [
      349,
      267
    ],
    "height": 1280,
    "orientation": 1,
    "overview_image_path": "thumbnails/jNGGfr5UgnVa_720x300_hInByfKJ.jpg",
    "path": "G322.2543cbcb571063cc124f7681c0200b7e958f4522.jpg",
    "width": 720
  },
  "number": 322,
  "overview_colour": 4279067648,
  "segments": [
    {
      "audio": {
        "duration": 99,
        "path": "BRAPOR_322.7bff128a8d49254661d2d6195db2968129600f31.mp3"
      },
      "footprint": {
        "background": 4281948200,
        "foreground": 4285172310
      },
      "images": [],
      "number": "322a",
      "title": "Onde tudo aconteceu",
      "type": "AudioSegment"
    }
  ],
  "title": "Lautrec, A litografia"
}