{
  "floor": 0,
  "image": {
    "blurred_image_path": "thumbnails/FEM8yshLxudf_720x1280_bmKQ_T9U.jpg",
    "focal_point": [
      353,
      452
    ],
    "height": 1280,
    "orientation": 1,
    "overview_image_path": "thumbnails/FEM8yshLxudf_720x300_wokgY3YL.jpg",
    "path": "G316.9c33c49a86cfcefb6f6d836f0d16c985e992396c.jpg",
    "width": 720
  },
  "number": 316,
  "overview_colour": null,
  "segments": [
    {
      "audio": {
        "duration": 109,
        "path": "BRAPOR_316.1.f892f84a7ebc7a03c3978664fa0f456fcfcfe7af.mp3"
      },
      "footprint": {
        "background": 4278867083,
        "foreground": 4283598273
      },
      "images": [
        {
          "hide_at": 58,
          "image": {
            "focal_point": [
              380,
              209
            ],
            "height": 1280,
            "orientation": 1,
            "path": "316-2 La goulueB.2fd58bf7e23d7be3d253ffcb00ec1926955e074c.jpg",
            "width": 720
          },
          "show_at": 37
        }
      ],
      "number": "316a",
      "title": "La Goulue",
      "type": "AudioSegment"
    },
    {
      "audio": {
        "duration": 64,
        "path": "BRAPOR_316.2.b5599c1fb4466fe6ecd517d3567610ade2cba67c.mp3"
      },
      "footprint": {
        "background": 4287857706,
        "foreground": 4291475549
      },
      "images": [
        {
          "hide_at": 29,
          "image": {
            "focal_point": [
              370,
              212
            ],
            "height": 1280,
            "orientation": 1,
            "path": "316 ToulouseB.e241b9c5e966025f7a9b151287ed5f721594f880.jpg",
            "width": 720
          },
          "show_at": 10
        },
        {
          "hide_at": 37,
          "image": {
            "focal_point": [
              298,
              298
            ],
            "height": 1280,
            "orientation": 1,
            "path": "316 - Jane AvrilB.f2ae2c3927cdb93bb70e8f3c8112a3407b15e5e9.jpg",
            "width": 720
          },
          "show_at": 30
        },
        {
          "hide_at": 59,
          "image": {
            "height": 1280,
            "orientation": 1,
            "path": "316.2G.c90bad40f177d444f1dd946503d6fd18a29e4041.jpg",
            "width": 720
          },
          "show_at": 38
        }
      ],
      "number": "316b",
      "title": "Lautrec e suas mulheres",
      "type": "AudioSegment"
    }
  ],
  "title": "Lautrec, Pôster para o Moulin Rouge"
}