{
  "floor": -1,
  "image": {
    "blurred_image_path": "thumbnails/1sagtXko9-c7_720x1280_16jGVcjb.jpg",
    "height": 1280,
    "orientation": 1,
    "overview_image_path": "thumbnails/1sagtXko9-c7_720x300_74tHK9Wi.jpg",
    "path": "G310G.cc9a12b5ba4d71fffcd0188f972fc34f7c7849fa.jpg",
    "width": 720
  },
  "number": 310,
  "overview_colour": 4290515217,
  "segments": [
    {
      "audio": {
        "duration": 82,
        "path": "BRAPOR_310.aeeb58380b6360c0751bf33dd91b091fb57f3705.mp3"
      },
      "footprint": {
        "background": 4284040259,
        "foreground": 4287329395
      },
      "images": [],
      "number": "310a",
      "title": "Mulher nua",
      "type": "AudioSegment"
    }
  ],
  "title": "Degas, Leitura após o banho "
}