{
  "floor": 2,
  "image": {
    "blurred_image_path": "thumbnails/iWrOAUUTaeMf_720x1280_uB9JOqxi.jpg",
    "focal_point": [
      360,
      576
    ],
    "height": 1280,
    "orientation": 1,
    "overview_image_path": "thumbnails/iWrOAUUTaeMf_720x300_mfj8bjKL.jpg",
    "path": "24_kaart.073ad8b70ca2e9c0e0c0b858310eb0743d86f25b.jpg",
    "width": 720
  },
  "number": 24,
  "overview_colour": null,
  "segments": [
    {
      "background_image": {
        "blurred_image_path": "thumbnails/yZKQwdlLVsmg_1280x720_16jGVcjb.jpg",
        "height": 1280,
        "orientation": 1,
        "path": "24a_final_frame.073ad8b70ca2e9c0e0c0b858310eb0743d86f25b.jpg",
        "width": 720
      },
      "footprint": {
        "background": 4294953728,
        "foreground": 4294165248
      },
      "hide_during_intro": false,
      "hotspots": [
        {
          "audio": {
            "duration": 16,
            "path": "24a_2a_chn.e24a4e501105e185c045b754481cc37510fd57cf.mp3"
          },
          "coordinate": [
            302,
            358
          ],
          "image": {
            "height": 720,
            "orientation": 8,
            "path": "24a_2a.ffd14bb03e95f5a5a28c7468e1821d1ee99a2e87.jpg",
            "width": 1280
          },
          "panel": {
            "height": 360,
            "orientation": 8,
            "path": "thumb_24a_2a.9f6930bff5b961fdc54ec6742afce32c41aa9884.jpg",
            "width": 624
          },
          "panel_coordinate": [
            489,
            281
          ]
        },
        {
          "audio": {
            "duration": 32,
            "path": "24a_2b_chn.f3475742ba2bd8e394b492a79747bbf873fb51cf.mp3"
          },
          "coordinate": [
            410,
            678
          ],
          "image": {
            "height": 720,
            "orientation": 8,
            "path": "24a_2b.fd1b0d86ee627a95e677f0812f138800fcc3beb3.jpg",
            "width": 1280
          },
          "panel": {
            "height": 360,
            "orientation": 8,
            "path": "thumb_24a_2b.4c0784869f547876d92d42f88cb1cc46dd9e3c0f.jpg",
            "width": 624
          },
          "panel_coordinate": [
            230,
            588
          ]
        },
        {
          "audio": {
            "duration": 11,
            "path": "24a_2c_chn.4349ad99654f39d2b816c71525554ee66e348af6.mp3"
          },
          "coordinate": [
            540,
            921
          ],
          "image": {
            "height": 1280,
            "orientation": 1,
            "path": "24_datavisualisatie_chn.5f3f341020765f77b2cab40f814a9dbbb670b14f.png",
            "width": 720
          },
          "panel": null,
          "panel_coordinate": null
        }
      ],
      "intro_audio": {
        "duration": 10,
        "path": "24a_2_chn.08ddb9b1f2877bdd978093809aeccf3abbbee729.mp3"
      },
      "intro_video": {
        "duration": 21,
        "height": 1280,
        "orientation": 1,
        "path": "24a_chn.mp4.ac78f31f9120aa63594d0a0a0f760a69cfb044f4.mp4",
        "width": 720
      },
      "intro_voiceover_audio": {
        "duration": 12,
        "path": "24a_chn.a137700e40bc57d30223ac119ef440303006fffc.mp3"
      },
      "number": "24a",
      "title": "到阿尔勒去",
      "type": "HotspotsSegment"
    }
  ],
  "title": "阿尔勒"
}