{
  "floor": 1,
  "image": {
    "blurred_image_path": "thumbnails/ypqC2fSvDeKn_720x1280_hojwExeZ.jpg",
    "focal_point": [
      360,
      704
    ],
    "height": 1280,
    "orientation": 1,
    "overview_image_path": "thumbnails/ypqC2fSvDeKn_720x300_Hq6Sn6Uk.jpg",
    "path": "41.e64d61742a3162f72861a62c4b8fa92e9b6f9868.jpg",
    "width": 720
  },
  "number": 41,
  "overview_colour": null,
  "segments": [
    {
      "audio": {
        "duration": 59,
        "path": "41a_rus.21b6d3b7ee1193149111c1eabccf7bb52d6d458c.mp3"
      },
      "footprint": {
        "background": 4287332728,
        "foreground": 4288845960
      },
      "images": [],
      "number": "41a",
      "title": "Частое курение",
      "type": "AudioSegment"
    },
    {
      "background_image": {
        "blurred_image_path": "thumbnails/lQsK3xmn1XVr_1280x720_16jGVcjb.jpg",
        "height": 1280,
        "orientation": 1,
        "path": "41b_0.319d3880e9898d7a089e560a1125176932b6cc62.jpg",
        "width": 720
      },
      "footprint": {
        "background": 4292727727,
        "foreground": 4291281583
      },
      "hide_during_intro": false,
      "hotspots": [
        {
          "audio": {
            "duration": 15,
            "path": "41b_1_rus.deb8433daaef501773ca1b3b37eafb866118214a.mp3"
          },
          "coordinate": [
            259,
            512
          ],
          "image": {
            "height": 1280,
            "orientation": 1,
            "path": "41b_1.ffe4e64de0c0030cadfca91f1ecfff0dc77100f6.jpg",
            "width": 720
          },
          "panel": null,
          "panel_coordinate": null
        },
        {
          "audio": {
            "duration": 9,
            "path": "41b_2_rus.91af9f1facac663cbca6242682175176c1e96ec3.mp3"
          },
          "coordinate": [
            259,
            947
          ],
          "image": {
            "height": 1280,
            "orientation": 1,
            "path": "41b_2.00b7559b6170d7c34d6b2bd10ff2edfa1dee9c55.jpg",
            "width": 720
          },
          "panel": null,
          "panel_coordinate": null
        }
      ],
      "intro_audio": {
        "duration": 8,
        "path": "41b_0_rus.6e3619d089ca69626e53e9bc06b6d27b04a3a519.mp3"
      },
      "intro_video": null,
      "intro_voiceover_audio": null,
      "number": "41b",
      "title": "Взгляд в классную комнату Ван Гога",
      "type": "HotspotsSegment"
    }
  ],
  "title": "Череп с горящей сигаретой"
}