{
  "floor": 0,
  "image": {
    "blurred_image_path": "thumbnails/Lj6zK6rsn7pV_720x1280_6t4xuOf7.jpg",
    "focal_point": [
      359,
      150
    ],
    "height": 1280,
    "orientation": 1,
    "overview_image_path": "thumbnails/Lj6zK6rsn7pV_720x300_3y7jHAZc.jpg",
    "path": "G312G.e80016b8d8374df8366b0fe0de0a8678d16b5b85.jpg",
    "width": 720
  },
  "number": 312,
  "overview_colour": 4278216297,
  "segments": [
    {
      "audio": {
        "duration": 86,
        "path": "MAN_312.63672fbbcfa4863900bc1c9188982b673e1d6634.mp3"
      },
      "footprint": {
        "background": 4286092196,
        "foreground": 4289513946
      },
      "images": [],
      "number": "312a",
      "title": "外出在街头",
      "type": "AudioSegment"
    }
  ],
  "title": "斯坦伦，街头"
}