{
  "floor": 1,
  "image": {
    "blurred_image_path": "thumbnails/jNGGfr5UgnVa_720x1280_eiO1wSHu.jpg",
    "focal_point": [
      349,
      267
    ],
    "height": 1280,
    "orientation": 1,
    "overview_image_path": "thumbnails/jNGGfr5UgnVa_720x300_hInByfKJ.jpg",
    "path": "G322.2543cbcb571063cc124f7681c0200b7e958f4522.jpg",
    "width": 720
  },
  "number": 322,
  "overview_colour": 4279067648,
  "segments": [
    {
      "audio": {
        "duration": 83,
        "path": "MAN_322.a6311f8d932d3a555773c36cc3cb6f08f6657183.mp3"
      },
      "footprint": {
        "background": 4281948200,
        "foreground": 4285172310
      },
      "images": [],
      "number": "322a",
      "title": "事情發生之地",
      "type": "AudioSegment"
    }
  ],
  "title": "罗特列克，石版印刷"
}