{
  "floor": 0,
  "image": {
    "blurred_image_path": "thumbnails/J7gTQ2p0Rblv_720x1280_UJdD9geL.jpg",
    "focal_point": [
      359,
      743
    ],
    "height": 1280,
    "orientation": 1,
    "overview_image_path": "thumbnails/J7gTQ2p0Rblv_720x300_09KPDcf8.jpg",
    "path": "G320.2538e638fb65847bd08c20c8c1b7b9a3004c453f.jpg",
    "width": 720
  },
  "number": 320,
  "overview_colour": 4282411565,
  "segments": [
    {
      "audio": {
        "duration": 71,
        "path": "MAN_320.2dadb3c3d56253cdc26e7174eab7c3c7eb17ad82.mp3"
      },
      "footprint": {
        "background": 4281875527,
        "foreground": 4284902262
      },
      "images": [
        {
          "hide_at": 37,
          "image": {
            "height": 1280,
            "orientation": 1,
            "path": "320.2LandscapeGW.02c59e2f15adfad97da899b9196be4ae460e83ea_03hvvvB.jpg",
            "width": 720
          },
          "show_at": 24
        }
      ],
      "number": "320a",
      "title": "用猫作广告",
      "type": "AudioSegment"
    }
  ],
  "title": "斯坦伦，在紫珠"
}