{
  "floor": 1,
  "image": {
    "blurred_image_path": "thumbnails/xBMXmvs75g79_720x1280_CD2D1u_4.jpg",
    "focal_point": [
      360,
      448
    ],
    "height": 1280,
    "orientation": 1,
    "overview_image_path": "thumbnails/xBMXmvs75g79_720x300_u9whUD-F.jpg",
    "path": "32.44d63a0e3cc415fbd4a448d8d97b1abdf8f7f4ef.jpg",
    "width": 720
  },
  "number": 32,
  "overview_colour": null,
  "segments": [
    {
      "audio": {
        "duration": 54,
        "path": "32a_dut.1dcfe587c61dfe52781898a7a1b31ebf5c8da976.mp3"
      },
      "footprint": {
        "background": 4288928744,
        "foreground": 4288400078
      },
      "images": [],
      "number": "32a",
      "title": "Rust",
      "type": "AudioSegment"
    },
    {
      "background_image": {
        "blurred_image_path": "thumbnails/S16HRtCnq4qu_1280x720_16jGVcjb.png",
        "height": 720,
        "orientation": 8,
        "path": "32b_0.6b859ba9ec1191576487b48eb1bcf95a8354a14d.jpg",
        "width": 1280
      },
      "footprint": {
        "background": 4294888192,
        "foreground": 4293180191
      },
      "hide_during_intro": false,
      "hotspots": [
        {
          "audio": {
            "duration": 9,
            "path": "32b_1_dut.8966697a40b7d61b8ddca1074b6cb2cffe7ef88b.mp3"
          },
          "coordinate": [
            1049,
            144
          ],
          "image": null,
          "panel": null,
          "panel_coordinate": null
        },
        {
          "audio": {
            "duration": 9,
            "path": "32b_2_dut.37edc245fe463ac27331c883f4ac1563754f3fb8.mp3"
          },
          "coordinate": [
            729,
            360
          ],
          "image": null,
          "panel": null,
          "panel_coordinate": null
        },
        {
          "audio": {
            "duration": 8,
            "path": "32b_3_dut.db44262a2aa3800ac80b099bb3880d564ff3c3a4.mp3"
          },
          "coordinate": [
            409,
            180
          ],
          "image": {
            "height": 720,
            "orientation": 8,
            "path": "32b_3_.0bed5aa5f76c90632ca5a708f312d78eceb2a23c.jpg",
            "width": 1280
          },
          "panel": null,
          "panel_coordinate": null
        }
      ],
      "intro_audio": null,
      "intro_video": null,
      "intro_voiceover_audio": null,
      "number": "32b",
      "title": "Ga Van Goghs slaapkamer binnen",
      "type": "HotspotsSegment"
    }
  ],
  "title": "De slaapkamer"
}