{
  "floor": 1,
  "image": {
    "blurred_image_path": "thumbnails/Cgde7fog_XYQ_720x1280_16jGVcjb.jpg",
    "height": 1280,
    "orientation": 1,
    "overview_image_path": "thumbnails/Cgde7fog_XYQ_720x300_74tHK9Wi.jpg",
    "path": "30.61ab18c294f3ce68c6d83073cd1d91537fa91387.jpg",
    "width": 720
  },
  "number": 30,
  "overview_colour": null,
  "segments": [
    {
      "audio": {
        "duration": 62,
        "path": "30a_ita.a52a9cba44d2db92b89d7638e563a98d5783242a.mp3"
      },
      "footprint": {
        "background": 4282157647,
        "foreground": 4284454966
      },
      "images": [],
      "number": "30a",
      "title": "La luce di Parigi",
      "type": "AudioSegment"
    },
    {
      "background_image": {
        "blurred_image_path": "thumbnails/S_chwUc119EY_1280x720_16jGVcjb.jpg",
        "height": 720,
        "orientation": 8,
        "path": "30b_0.2e2af9374d61d58784c68e9edf00f25161de8d40.jpg",
        "width": 1280
      },
      "footprint": {
        "background": 4292893491,
        "foreground": 4291969329
      },
      "hide_during_intro": true,
      "hotspots": [
        {
          "audio": {
            "duration": 22,
            "path": "30b_2_ita.e5d3a33495775f156f81fb972de8c5c11262704e.mp3"
          },
          "coordinate": [
            473,
            583
          ],
          "image": {
            "height": 720,
            "orientation": 8,
            "path": "30b_1.1e528917500d86bdee88f657a26a09202257aa4b.jpg",
            "width": 1280
          },
          "panel": null,
          "panel_coordinate": null
        }
      ],
      "intro_audio": {
        "duration": 13,
        "path": "30b_0_ita_revised.7e593ba9e9f37bfec95ecc6cb9f4db1906481851.mp3"
      },
      "intro_video": null,
      "intro_voiceover_audio": null,
      "number": "30b",
      "title": "Un biglietto di Van Gogh",
      "type": "HotspotsSegment"
    }
  ],
  "title": "Boulevard de Clichy"
}