{
  "floor": 1,
  "image": {
    "blurred_image_path": "thumbnails/ypqC2fSvDeKn_720x1280_hojwExeZ.jpg",
    "focal_point": [
      360,
      704
    ],
    "height": 1280,
    "orientation": 1,
    "overview_image_path": "thumbnails/ypqC2fSvDeKn_720x300_Hq6Sn6Uk.jpg",
    "path": "41.e64d61742a3162f72861a62c4b8fa92e9b6f9868.jpg",
    "width": 720
  },
  "number": 41,
  "overview_colour": null,
  "segments": [
    {
      "audio": {
        "duration": 57,
        "path": "41a_eng.26a64c3519fe6710e6f1faf5a33105df49dc1012.mp3"
      },
      "footprint": {
        "background": 4287332728,
        "foreground": 4288845960
      },
      "images": [],
      "number": "41a",
      "title": "Smoking a lot",
      "type": "AudioSegment"
    },
    {
      "background_image": {
        "blurred_image_path": "thumbnails/lQsK3xmn1XVr_1280x720_16jGVcjb.jpg",
        "height": 1280,
        "orientation": 1,
        "path": "41b_0.319d3880e9898d7a089e560a1125176932b6cc62.jpg",
        "width": 720
      },
      "footprint": {
        "background": 4292727727,
        "foreground": 4291281583
      },
      "hide_during_intro": false,
      "hotspots": [
        {
          "audio": {
            "duration": 11,
            "path": "41b_1_eng.377697341e3e284b80781cdbb4c7f6b2875baead.mp3"
          },
          "coordinate": [
            259,
            512
          ],
          "image": {
            "height": 1280,
            "orientation": 1,
            "path": "41b_1.ffe4e64de0c0030cadfca91f1ecfff0dc77100f6.jpg",
            "width": 720
          },
          "panel": null,
          "panel_coordinate": null
        },
        {
          "audio": {
            "duration": 7,
            "path": "41b_2_eng.0c70a327aa4666a13d72db1c9dba06bc2d557aca.mp3"
          },
          "coordinate": [
            259,
            947
          ],
          "image": {
            "height": 1280,
            "orientation": 1,
            "path": "41b_2.00b7559b6170d7c34d6b2bd10ff2edfa1dee9c55.jpg",
            "width": 720
          },
          "panel": null,
          "panel_coordinate": null
        }
      ],
      "intro_audio": {
        "duration": 7,
        "path": "41b_0_eng.21a0af791c522bcc7d0a2a8b5cf7a5760a4c99ae.mp3"
      },
      "intro_video": null,
      "intro_voiceover_audio": null,
      "number": "41b",
      "title": "A look into Van Gogh's classroom",
      "type": "HotspotsSegment"
    }
  ],
  "title": "Head of a Skeleton with a Burning Cigarette"
}