{
  "floor": 3,
  "image": {
    "blurred_image_path": "thumbnails/Yv1L8UvF9-QI_720x1280_uB9JOqxi.jpg",
    "focal_point": [
      360,
      576
    ],
    "height": 1280,
    "orientation": 1,
    "overview_image_path": "thumbnails/Yv1L8UvF9-QI_720x300_mfj8bjKL.jpg",
    "path": "43_kaart.923953097fbd11a486f082a189b77eea35df61c2.jpg",
    "width": 720
  },
  "number": 43,
  "overview_colour": null,
  "segments": [
    {
      "background_image": {
        "blurred_image_path": "thumbnails/uA8W5X5H8koN_1280x720_16jGVcjb.jpg",
        "height": 1280,
        "orientation": 1,
        "path": "arles-saintremy.06ed81c4710940b69607f7a2d9b9a8bb7b20684a.png",
        "width": 720
      },
      "footprint": {
        "background": 4294953728,
        "foreground": 4294165248
      },
      "hide_during_intro": false,
      "hotspots": [
        {
          "audio": {
            "duration": 11,
            "path": "43a_2a_eng.b20171fc7155dad2961ee3e44dc663f9629bcf93.mp3"
          },
          "coordinate": [
            230,
            460
          ],
          "image": {
            "height": 720,
            "orientation": 8,
            "path": "43a_2a_.577f8d79d73104e7d4a7ea72cc20f42fc2ec0e51.jpg",
            "width": 1280
          },
          "panel": {
            "height": 400,
            "orientation": 8,
            "path": "thumb_43a_2a_revised.a7218b6196795c687d7705fed0c21453c9bb4675.jpg",
            "width": 513
          },
          "panel_coordinate": [
            410,
            345
          ]
        },
        {
          "audio": {
            "duration": 21,
            "path": "43a_2b_eng.48450f93e16bbaf3e5e55aae88b69ac5bbc0f9e8.mp3"
          },
          "coordinate": [
            108,
            1024
          ],
          "image": {
            "height": 720,
            "orientation": 8,
            "path": "43a_2b.9bf254c0d3d3676946071801099a90420981d09c.jpg",
            "width": 1280
          },
          "panel": {
            "height": 400,
            "orientation": 8,
            "path": "thumb_43a_2b.7cb850fa75b6b981204d65352591fc38e912bfc6.jpg",
            "width": 534
          },
          "panel_coordinate": [
            223,
            1011
          ]
        },
        {
          "audio": {
            "duration": 14,
            "path": "43a_2c_eng.8767c9c2a8637ddfae92f60bd7564c758daa6e25.mp3"
          },
          "coordinate": [
            280,
            678
          ],
          "image": {
            "height": 1280,
            "orientation": 1,
            "path": "43_datavisualisatie_eng.a9d531b52709d6bcf56f9dc8f8e8111b1fceb3ea.png",
            "width": 720
          },
          "panel": null,
          "panel_coordinate": null
        }
      ],
      "intro_audio": {
        "duration": 7,
        "path": "43a_2_eng.74ab979615a6b3edebfdf3a5ce94b40bf032e7f5.mp3"
      },
      "intro_video": {
        "duration": 21,
        "height": 1280,
        "orientation": 1,
        "path": "43_eng.mp4.48a17341d62b74f70551a7615597e69e0d0b66c8.mp4",
        "width": 720
      },
      "intro_voiceover_audio": {
        "duration": 13,
        "path": "43a_1_eng.94d04fb88e847db988b0605f2468326ea5dcc7ef.mp3"
      },
      "number": "43a",
      "title": "Going to Saint-Rémy",
      "type": "HotspotsSegment"
    }
  ],
  "title": "Saint-Rémy-de-Provence"
}