{
  "floor": 0,
  "image": {
    "blurred_image_path": "thumbnails/FEM8yshLxudf_720x1280_bmKQ_T9U.jpg",
    "focal_point": [
      353,
      452
    ],
    "height": 1280,
    "orientation": 1,
    "overview_image_path": "thumbnails/FEM8yshLxudf_720x300_wokgY3YL.jpg",
    "path": "G316.9c33c49a86cfcefb6f6d836f0d16c985e992396c.jpg",
    "width": 720
  },
  "number": 316,
  "overview_colour": null,
  "segments": [
    {
      "audio": {
        "duration": 99,
        "path": "GER_316.1.0f268a155587e4375b694c7b4245c68874fe2e66.mp3"
      },
      "footprint": {
        "background": 4278867083,
        "foreground": 4283598273
      },
      "images": [
        {
          "hide_at": 51,
          "image": {
            "focal_point": [
              380,
              209
            ],
            "height": 1280,
            "orientation": 1,
            "path": "316-2 La goulueB.2fd58bf7e23d7be3d253ffcb00ec1926955e074c.jpg",
            "width": 720
          },
          "show_at": 36
        }
      ],
      "number": "316a",
      "title": "La Goulue",
      "type": "AudioSegment"
    },
    {
      "audio": {
        "duration": 64,
        "path": "GER_316.2.c59070e34146ed8ff07495fdd888e38d1f42d303.mp3"
      },
      "footprint": {
        "background": 4287857706,
        "foreground": 4291475549
      },
      "images": [
        {
          "hide_at": 29,
          "image": {
            "focal_point": [
              370,
              212
            ],
            "height": 1280,
            "orientation": 1,
            "path": "316 ToulouseB.e241b9c5e966025f7a9b151287ed5f721594f880.jpg",
            "width": 720
          },
          "show_at": 9
        },
        {
          "hide_at": 37,
          "image": {
            "focal_point": [
              298,
              298
            ],
            "height": 1280,
            "orientation": 1,
            "path": "316 - Jane AvrilB.f2ae2c3927cdb93bb70e8f3c8112a3407b15e5e9.jpg",
            "width": 720
          },
          "show_at": 30
        },
        {
          "hide_at": 62,
          "image": {
            "height": 1280,
            "orientation": 1,
            "path": "316.2G.c90bad40f177d444f1dd946503d6fd18a29e4041.jpg",
            "width": 720
          },
          "show_at": 38
        }
      ],
      "number": "316b",
      "title": "Lautrec und seine Frauen ",
      "type": "AudioSegment"
    }
  ],
  "title": "Lautrec, Plakat für Le Moulin Rouge"
}