{
  "floor": -1,
  "image": {
    "blurred_image_path": "thumbnails/vAt5W5WIEc54_720x1280_B36fsAkX.jpg",
    "focal_point": [
      366,
      359
    ],
    "height": 1280,
    "orientation": 1,
    "overview_image_path": "thumbnails/vAt5W5WIEc54_720x300_DMhgx8DR.jpg",
    "path": "G308.922594f33e071512251908f8fd12152687d4a9e5.jpg",
    "width": 720
  },
  "number": 308,
  "overview_colour": null,
  "segments": [
    {
      "audio": {
        "duration": 73,
        "path": "GER_308.29ea58041098c0315b137e8e45a7b3e561bfd06d.mp3"
      },
      "footprint": {
        "background": 4282266923,
        "foreground": 4285424728
      },
      "images": [],
      "number": "308a",
      "title": "Drama!",
      "type": "AudioSegment"
    }
  ],
  "title": "Vuillard, Theaterprogramm für das Theaterstück L’image "
}